^C:\USERS\LORDKOPAKOS\DESKTOP\PLUG\PLUG\DEBUG\MAIN.OBJ|C:\USERS\LORDKOPAKOS\DESKTOP\PLUG\PLUG\DEBUG\PLUGIN1.OBJ|C:\USERS\LORDKOPAKOS\DESKTOP\PLUG\PLUG\DEBUG\PLUGIN2.OBJ|C:\USERS\LORDKOPAKOS\DESKTOP\PLUG\PLUG\DEBUG\PLUGIN_MANAGER.OBJ
C:\USERS\LORDKOPAKOS\DESKTOP\PLUG\DEBUG\PLUG.ILK
C:\USERS\LORDKOPAKOS\DESKTOP\PLUG\DEBUG\PLUG.EXE
C:\USERS\LORDKOPAKOS\DESKTOP\PLUG\DEBUG\PLUG.PDB
