^C:\USERS\DOMINIK\DOCUMENTS\VISUAL STUDIO 2015\PROJECTS\PLUG\PLUG\DEBUG\MAIN.OBJ|C:\USERS\DOMINIK\DOCUMENTS\VISUAL STUDIO 2015\PROJECTS\PLUG\PLUG\DEBUG\PLUGIN1.OBJ|C:\USERS\DOMINIK\DOCUMENTS\VISUAL STUDIO 2015\PROJECTS\PLUG\PLUG\DEBUG\PLUGINS.OBJ
/OUT:"C:\USERS\DOMINIK\DOCUMENTS\VISUAL STUDIO 2015\PROJECTS\PLUG\DEBUG\PLUG.EXE" /INCREMENTAL /NOLOGO KERNEL32.LIB USER32.LIB GDI32.LIB WINSPOOL.LIB COMDLG32.LIB ADVAPI32.LIB SHELL32.LIB OLE32.LIB OLEAUT32.LIB UUID.LIB ODBC32.LIB ODBCCP32.LIB /MANIFEST /MANIFESTUAC:"level='asInvoker' uiAccess='false'" /manifest:embed /Debug /PDB:"C:\USERS\DOMINIK\DOCUMENTS\VISUAL STUDIO 2015\PROJECTS\PLUG\DEBUG\PLUG.PDB" /TLBID:1 /DYNAMICBASE /NXCOMPAT /IMPLIB:"C:\USERS\DOMINIK\DOCUMENTS\VISUAL STUDIO 2015\PROJECTS\PLUG\DEBUG\PLUG.LIB" /MACHINE:X86 DEBUG\MAIN.OBJDEBUG\PLUGIN1.OBJDEBUG\PLUGINS.OBJ
^C:\USERS\LORDKOPAKOS\DESKTOP\PLUG\PLUG\DEBUG\MAIN.OBJ|C:\USERS\LORDKOPAKOS\DESKTOP\PLUG\PLUG\DEBUG\PLUGIN1.OBJ|C:\USERS\LORDKOPAKOS\DESKTOP\PLUG\PLUG\DEBUG\PLUGIN2.OBJ|C:\USERS\LORDKOPAKOS\DESKTOP\PLUG\PLUG\DEBUG\PLUGIN_MANAGER.OBJ
/OUT:"C:\USERS\LORDKOPAKOS\DESKTOP\PLUG\DEBUG\PLUG.EXE" /INCREMENTAL /NOLOGO KERNEL32.LIB USER32.LIB GDI32.LIB WINSPOOL.LIB COMDLG32.LIB ADVAPI32.LIB SHELL32.LIB OLE32.LIB OLEAUT32.LIB UUID.LIB ODBC32.LIB ODBCCP32.LIB /MANIFEST /MANIFESTUAC:"level='asInvoker' uiAccess='false'" /manifest:embed /DEBUG:FASTLINK /PDB:"C:\USERS\LORDKOPAKOS\DESKTOP\PLUG\DEBUG\PLUG.PDB" /TLBID:1 /DYNAMICBASE /NXCOMPAT /IMPLIB:"C:\USERS\LORDKOPAKOS\DESKTOP\PLUG\DEBUG\PLUG.LIB" /MACHINE:X86 DEBUG\MAIN.OBJDEBUG\PLUGIN1.OBJDEBUG\PLUGIN2.OBJDEBUG\PLUGIN_MANAGER.OBJ
